code/tests/logs/huawei_vodacom/quellerina/ublox/echo/1.csv

Record Length,2500,Points,0.0,79.999998212E-3,
Sample Interval,9.999999776E-3,s,9.999999776E-3,79.999998212E-3,
Trigger Point,0.0,Samples,19.9999996E-3,87.999992073E-3,
,,,29.99999933E-3,79.999998212E-3,
,,,39.99999911E-3,79.999998212E-3,
,,,49.99999702E-3,87.999992073E-3,
Source,CH1,,59.999998659E-3,79.999998212E-3,
Vertical Units,Volts,,70.000000298E-3,87.999992073E-3,
Vertical Scale,204.78123589E-3,,79.999998212E-3,79.999998212E-3,
Vertical Offset,0,,89.999996126E-3,71.999996901E-3,
Horizontal Units,s,,99.999994040E-3,71.999996901E-3,
Horizontal Scale,2.4999999,,109.9999994E-3,79.999998212E-3,
Pt Fmt,Y,,119.9999973E-3,79.999998212E-3,
Yzero,-2.81275752,,129.9999952E-3,71.999996901E-3,
Probe Atten,1.000000,,140.0000006E-3,71.999996901E-3,
,,,149.99999106E-3,79.999998212E-3,
Note,TDS 2001C - 10:43:08 PM   2019/09/24,,159.99999642E-3,79.999998212E-3,
,,,170.00000179E-3,79.999998212E-3,
,,,179.99999225E-3,87.999992073E-3,
,,,189.99999762E-3,79.999998212E-3,
,,,199.99998808E-3,71.999996901E-3,
,,,209.99999344E-3,71.999996901E-3,
,,,219.99999881E-3,79.999998212E-3,
,,,229.99998927E-3,79.999998212E-3,
,,,239.99999464E-3,87.999992073E-3,
,,,250.00000000E-3,79.999998212E-3,
,,,259.99999046E-3,87.999992073E-3,
,,,269.99998093E-3,79.999998212E-3,
,,,280.00000119E-3,79.999998212E-3,
,,,289.99999166E-3,79.999998212E-3,
,,,299.99998212E-3,79.999998212E-3,
,,,310.00000238E-3,79.999998212E-3,
,,,319.99999285E-3,87.999992073E-3,
,,,329.99998331E-3,79.999998212E-3,
,,,340.00000358E-3,87.999992073E-3,
,,,349.99999404E-3,79.999998212E-3,
,,,359.99998450E-3,79.999998212E-3,
,,,370.00000477E-3,87.999992073E-3,
,,,379.99999523E-3,79.999998212E-3,
,,,389.99998569E-3,79.999998212E-3,
,,,399.99997616E-3,79.999998212E-3,
,,,409.999996424E-3,71.999996901E-3,
,,,419.999986887E-3,71.999996901E-3,
,,,429.999977350E-3,71.999996901E-3,
,,,439.999997616E-3,79.999998212E-3,
,,,449.999988079E-3,79.999998212E-3,
,,,459.999978542E-3,79.999998212E-3,
,,,469.999998808E-3,87.999992073E-3,
,,,479.999989271E-3,79.999998212E-3,
,,,489.999979734E-3,79.999998212E-3,
,,,500.000000000E-3,79.999998212E-3,
,,,509.999990463E-3,79.999998212E-3,
,,,519.999980927E-3,87.999992073E-3,
,,,529.999971390E-3,79.999998212E-3,
,,,539.999961853E-3,79.999998212E-3,
,,,550.000011921E-3,79.999998212E-3,
,,,560.000002384E-3,79.999998212E-3,
,,,569.999992847E-3,79.999998212E-3,
,,,579.999983311E-3,79.999998212E-3,
,,,589.999973774E-3,79.999998212E-3,
,,,599.999964237E-3,71.999996901E-3,
,,,610.000014305E-3,71.999996901E-3,
,,,620.000004768E-3,71.999996901E-3,
,,,629.999995232E-3,71.999996901E-3,
,,,639.999985695E-3,71.999996901E-3,
,,,649.999976158E-3,71.999996901E-3,
,,,659.999966621E-3,71.999996901E-3,
,,,669.999957085E-3,79.999998212E-3,
,,,680.000007153E-3,79.999998212E-3,
,,,689.999997616E-3,71.999996901E-3,
,,,699.999988079E-3,79.999998212E-3,
,,,709.999978542E-3,71.999996901E-3,
,,,719.999969006E-3,71.999996901E-3,
,,,729.999959469E-3,79.999998212E-3,
,,,740.000009537E-3,79.999998212E-3,
,,,750.000000000E-3,71.999996901E-3,
,,,759.999990463E-3,79.999998212E-3,
,,,769.999980927E-3,79.999998212E-3,
,,,779.999971390E-3,79.999998212E-3,
,,,789.999961853E-3,95.999993384E-3,
,,,799.999952316E-3,95.999993384E-3,
,,,810.000002384E-3,87.999992073E-3,
,,,819.999992847E-3,87.999992073E-3,
,,,829.999983311E-3,95.999993384E-3,
,,,839.999973774E-3,87.999992073E-3,
,,,849.999964237E-3,95.999993384E-3,
,,,859.999954700E-3,95.999993384E-3,
,,,870.000004768E-3,87.999992073E-3,
,,,879.999995232E-3,87.999992073E-3,
,,,889.999985695E-3,87.999992073E-3,
,,,899.999976158E-3,87.999992073E-3,
,,,909.999966621E-3,79.999998212E-3,
,,,919.999957085E-3,79.999998212E-3,
,,,930.000007153E-3,79.999998212E-3,
,,,939.999997616E-3,79.999998212E-3,
,,,949.999988079E-3,79.999998212E-3,
,,,959.999978542E-3,71.999996901E-3,
,,,969.999969006E-3,79.999998212E-3,
,,,979.999959469E-3,79.999998212E-3,
,,,989.999949932E-3,79.999998212E-3,
,,,1.000000,87.999992073E-3,
,,,1.0100000,71.999996901E-3,
,,,1.0200000,79.999998212E-3,
,,,1.0300000,63.999995589E-3,
,,,1.0400000,71.999996901E-3,
,,,1.0500000,71.999996901E-3,
,,,1.0599999,71.999996901E-3,
,,,1.0699999,71.999996901E-3,
,,,1.0799999,71.999996901E-3,
,,,1.0900000,71.999996901E-3,
,,,1.1000000,71.999996901E-3,
,,,1.1100000,63.999995589E-3,
,,,1.1200000,71.999996901E-3,
,,,1.1300000,95.999993384E-3,
,,,1.1400000,87.999992073E-3,
,,,1.1500000,79.999998212E-3,
,,,1.1600000,71.999996901E-3,
,,,1.1700000,71.999996901E-3,
,,,1.1799999,79.999998212E-3,
,,,1.1899999,79.999998212E-3,
,,,1.1999999,87.999992073E-3,
,,,1.2099999,79.999998212E-3,
,,,1.2200000,87.999992073E-3,
,,,1.2300000,71.999996901E-3,
,,,1.2400000,79.999998212E-3,
,,,1.2500000,63.999995589E-3,
,,,1.2600000,71.999996901E-3,
,,,1.2700000,71.999996901E-3,
,,,1.2800000,87.999992073E-3,
,,,1.2900000,79.999998212E-3,
,,,1.3000000,79.999998212E-3,
,,,1.3099999,63.999995589E-3,
,,,1.3199999,79.999998212E-3,
,,,1.3299999,71.999996901E-3,
,,,1.3399999,71.999996901E-3,
,,,1.3500000,71.999996901E-3,
,,,1.3600000,63.999995589E-3,
,,,1.3700000,671.999931335E-3,
,,,1.3800000,87.999992073E-3,
,,,1.3900000,71.999996901E-3,
,,,1.4000000,87.999992073E-3,
,,,1.4100000,79.999998212E-3,
,,,1.4200000,71.999996901E-3,
,,,1.4299999,63.999995589E-3,
,,,1.4399999,79.999998212E-3,
,,,1.4499999,71.999996901E-3,
,,,1.4599999,95.999993384E-3,
,,,1.4699999,87.999992073E-3,
,,,1.4800000,95.999993384E-3,
,,,1.4900000,95.999993384E-3,
,,,1.5000000,95.999993384E-3,
,,,1.5100000,95.999993384E-3,
,,,1.5200000,87.999992073E-3,
,,,1.5300000,95.999993384E-3,
,,,1.5400000,95.999993384E-3,
,,,1.5500000,95.999993384E-3,
,,,1.5599999,87.999992073E-3,
,,,1.5699999,95.999993384E-3,
,,,1.5799999,87.999992073E-3,
,,,1.5899999,87.999992073E-3,
,,,1.5999999,87.999992073E-3,
,,,1.6100000,87.999992073E-3,
,,,1.6200000,87.999992073E-3,
,,,1.6300000,87.999992073E-3,
,,,1.6400000,79.999998212E-3,
,,,1.6500000,87.999992073E-3,
,,,1.6600000,79.999998212E-3,
,,,1.6700000,87.999992073E-3,
,,,1.6799999,79.999998212E-3,
,,,1.6899999,87.999992073E-3,
,,,1.6999999,79.999998212E-3,
,,,1.7099999,79.999998212E-3,
,,,1.7199999,79.999998212E-3,
,,,1.7300000,87.999992073E-3,
,,,1.7400000,87.999992073E-3,
,,,1.7500000,87.999992073E-3,
,,,1.7600000,79.999998212E-3,
,,,1.7700000,79.999998212E-3,
,,,1.7800000,79.999998212E-3,
,,,1.7900000,87.999992073E-3,
,,,1.8000000,87.999992073E-3,
,,,1.8099999,87.999992073E-3,
,,,1.8199999,87.999992073E-3,
,,,1.8299999,87.999992073E-3,
,,,1.8399999,79.999998212E-3,
,,,1.8499999,79.999998212E-3,
,,,1.8600000,79.999998212E-3,
,,,1.8700000,87.999992073E-3,
,,,1.8800000,87.999992073E-3,
,,,1.8900000,87.999992073E-3,
,,,1.9000000,79.999998212E-3,
,,,1.9100000,79.999998212E-3,
,,,1.9200000,71.999996901E-3,
,,,1.9299999,79.999998212E-3,
,,,1.9399999,79.999998212E-3,
,,,1.9499999,87.999992073E-3,
,,,1.9599999,87.999992073E-3,
,,,1.9699999,79.999998212E-3,
,,,1.9799999,71.999996901E-3,
,,,1.9900000,79.999998212E-3,
,,,2.0000000,79.999998212E-3,
,,,2.0100000,79.999998212E-3,
,,,2.0200000,79.999998212E-3,
,,,2.0300000,87.999992073E-3,
,,,2.0400000,87.999992073E-3,
,,,2.0500000,87.999992073E-3,
,,,2.0599999,79.999998212E-3,
,,,2.0699999,79.999998212E-3,
,,,2.0799999,79.999998212E-3,
,,,2.0899999,71.999996901E-3,
,,,2.0999999,79.999998212E-3,
,,,2.1099999,87.999992073E-3,
,,,2.1199999,79.999998212E-3,
,,,2.1299999,87.999992073E-3,
,,,2.1399999,79.999998212E-3,
,,,2.1499999,79.999998212E-3,
,,,2.1599998,79.999998212E-3,
,,,2.1699998,79.999998212E-3,
,,,2.1800001,87.999992073E-3,
,,,2.1900001,79.999998212E-3,
,,,2.2000000,79.999998212E-3,
,,,2.2100000,79.999998212E-3,
,,,2.2200000,87.999992073E-3,
,,,2.2300000,87.999992073E-3,
,,,2.2400000,79.999998212E-3,
,,,2.2500000,71.999996901E-3,
,,,2.2600000,71.999996901E-3,
,,,2.2700000,79.999998212E-3,
,,,2.2800000,79.999998212E-3,
,,,2.2900000,79.999998212E-3,
,,,2.3000000,79.999998212E-3,
,,,2.3099999,87.999992073E-3,
,,,2.3199999,79.999998212E-3,
,,,2.3299999,79.999998212E-3,
,,,2.3399999,71.999996901E-3,
,,,2.3499999,71.999996901E-3,
,,,2.3599999,79.999998212E-3,
,,,2.3699999,79.999998212E-3,
,,,2.3799999,79.999998212E-3,
,,,2.3899999,79.999998212E-3,
,,,2.3999999,79.999998212E-3,
,,,2.4099998,87.999992073E-3,
,,,2.4199998,79.999998212E-3,
,,,2.4299998,87.999992073E-3,
,,,2.4400001,79.999998212E-3,
,,,2.4500000,71.999996901E-3,
,,,2.4600000,79.999998212E-3,
,,,2.4700000,87.999992073E-3,
,,,2.4800000,87.999992073E-3,
,,,2.4900000,87.999992073E-3,
,,,2.5000000,79.999998212E-3,
,,,2.5100000,79.999998212E-3,
,,,2.5200000,79.999998212E-3,
,,,2.5300000,79.999998212E-3,
,,,2.5400000,71.999996901E-3,
,,,2.5500000,79.999998212E-3,
,,,2.5599999,79.999998212E-3,
,,,2.5699999,71.999996901E-3,
,,,2.5799999,71.999996901E-3,
,,,2.5899999,79.999998212E-3,
,,,2.5999999,79.999998212E-3,
,,,2.6099999,-447.999954224E-3,
,,,2.6199999,-447.999954224E-3,
,,,2.6299999,-447.999954224E-3,
,,,2.6399999,-447.999954224E-3,
,,,2.6499999,-447.999954224E-3,
,,,2.6599998,-447.999954224E-3,
,,,2.6699998,-447.999954224E-3,
,,,2.6799998,-447.999954224E-3,
,,,2.6900001,-447.999954224E-3,
,,,2.7000000,-447.999954224E-3,
,,,2.7100000,-447.999954224E-3,
,,,2.72000003,-447.999954224E-3,
,,,2.73000002,-447.999954224E-3,
,,,2.74000001,-447.999954224E-3,
,,,2.75000000,-447.999954224E-3,
,,,2.75999999,-447.999954224E-3,
,,,2.76999998,-447.999954224E-3,
,,,2.77999997,-447.999954224E-3,
,,,2.78999996,-447.999954224E-3,
,,,2.79999995,-447.999954224E-3,
,,,2.80999994,-447.999954224E-3,
,,,2.81999993,-447.999954224E-3,
,,,2.82999992,-447.999954224E-3,
,,,2.83999991,-447.999954224E-3,
,,,2.84999990,-447.999954224E-3,
,,,2.85999990,-447.999954224E-3,
,,,2.86999989,-447.999954224E-3,
,,,2.87999988,-447.999954224E-3,
,,,2.88999987,-447.999954224E-3,
,,,2.89999986,-447.999954224E-3,
,,,2.90999985,-447.999954224E-3,
,,,2.91999984,-447.999954224E-3,
,,,2.92999983,-447.999954224E-3,
,,,2.93999982,-447.999954224E-3,
,,,2.95000005,-447.999954224E-3,
,,,2.96000004,-447.999954224E-3,
,,,2.97000003,-447.999954224E-3,
,,,2.98000002,-447.999954224E-3,
,,,2.99000001,-447.999954224E-3,
,,,3.00000000,-447.999954224E-3,
,,,3.00999999,-447.999954224E-3,
,,,3.01999998,-447.999954224E-3,
,,,3.02999997,-447.999954224E-3,
,,,3.03999996,-447.999954224E-3,
,,,3.04999995,-447.999954224E-3,
,,,3.05999994,-447.999954224E-3,
,,,3.06999993,-447.999954224E-3,
,,,3.07999992,-447.999954224E-3,
,,,3.08999991,-447.999954224E-3,
,,,3.09999990,-447.999954224E-3,
,,,3.10999990,-447.999954224E-3,
,,,3.11999989,-447.999954224E-3,
,,,3.12999988,-447.999954224E-3,
,,,3.13999987,-447.999954224E-3,
,,,3.14999986,-447.999954224E-3,
,,,3.15999985,-447.999954224E-3,
,,,3.16999984,-447.999954224E-3,
,,,3.17999983,-447.999954224E-3,
,,,3.18999982,-447.999954224E-3,
,,,3.19999981,-447.999954224E-3,
,,,3.21000004,-447.999954224E-3,
,,,3.22000003,-447.999954224E-3,
,,,3.23000002,-447.999954224E-3,
,,,3.24000001,-447.999954224E-3,
,,,3.25000000,-447.999954224E-3,
,,,3.25999999,-447.999954224E-3,
,,,3.26999998,-447.999954224E-3,
,,,3.27999997,-447.999954224E-3,
,,,3.28999996,-447.999954224E-3,
,,,3.29999995,-447.999954224E-3,
,,,3.30999994,-447.999954224E-3,
,,,3.31999993,-447.999954224E-3,
,,,3.32999992,-447.999954224E-3,
,,,3.33999991,-447.999954224E-3,
,,,3.34999990,-447.999954224E-3,
,,,3.35999990,-447.999954224E-3,
,,,3.36999989,-447.999954224E-3,
,,,3.37999988,-447.999954224E-3,
,,,3.38999987,-447.999954224E-3,
,,,3.39999986,-447.999954224E-3,
,,,3.40999985,-447.999954224E-3,
,,,3.41999984,-447.999954224E-3,
,,,3.42999983,-447.999954224E-3,
,,,3.43999982,-447.999954224E-3,
,,,3.44999981,-447.999954224E-3,
,,,3.46000004,-447.999954224E-3,
,,,3.47000003,-447.999954224E-3,
,,,3.48000002,-447.999954224E-3,
,,,3.49000001,-447.999954224E-3,
,,,3.50000000,-447.999954224E-3,
,,,3.50999999,-447.999954224E-3,
,,,3.51999998,-447.999954224E-3,
,,,3.52999997,-447.999954224E-3,
,,,3.53999996,-447.999954224E-3,
,,,3.54999995,-447.999954224E-3,
,,,3.55999994,-447.999954224E-3,
,,,3.56999993,-447.999954224E-3,
,,,3.57999992,-447.999954224E-3,
,,,3.58999991,-447.999954224E-3,
,,,3.59999990,-447.999954224E-3,
,,,3.60999990,-447.999954224E-3,
,,,3.61999989,-447.999954224E-3,
,,,3.62999988,-447.999954224E-3,
,,,3.63999987,-447.999954224E-3,
,,,3.64999986,-447.999954224E-3,
,,,3.65999985,-447.999954224E-3,
,,,3.66999984,-447.999954224E-3,
,,,3.67999983,-447.999954224E-3,
,,,3.68999982,-447.999954224E-3,
,,,3.69999981,-447.999954224E-3,
,,,3.70999980,-447.999954224E-3,
,,,3.72000003,-447.999954224E-3,
,,,3.73000002,-447.999954224E-3,
,,,3.74000001,-447.999954224E-3,
,,,3.75000000,-447.999954224E-3,
,,,3.75999999,-447.999954224E-3,
,,,3.76999998,-447.999954224E-3,
,,,3.77999997,-447.999954224E-3,
,,,3.78999996,-447.999954224E-3,
,,,3.79999995,-447.999954224E-3,
,,,3.80999994,-447.999954224E-3,
,,,3.81999993,-447.999954224E-3,
,,,3.82999992,-447.999954224E-3,
,,,3.83999991,-447.999954224E-3,
,,,3.84999990,-447.999954224E-3,
,,,3.85999990,-447.999954224E-3,
,,,3.86999989,-447.999954224E-3,
,,,3.87999988,-447.999954224E-3,
,,,3.88999987,-447.999954224E-3,
,,,3.89999986,-447.999954224E-3,
,,,3.90999985,-447.999954224E-3,
,,,3.91999984,-447.999954224E-3,
,,,3.92999983,-447.999954224E-3,
,,,3.93999982,-447.999954224E-3,
,,,3.94999981,-447.999954224E-3,
,,,3.95999980,-447.999954224E-3,
,,,3.97000003,-447.999954224E-3,
,,,3.98000002,-447.999954224E-3,
,,,3.99000001,-447.999954224E-3,
,,,4.00000000,-447.999954224E-3,
,,,4.00999975,-447.999954224E-3,
,,,4.01999998,-447.999954224E-3,
,,,4.02999973,-447.999954224E-3,
,,,4.03999996,-447.999954224E-3,
,,,4.04999971,-447.999954224E-3,
,,,4.05999994,-447.999954224E-3,
,,,4.06999969,-447.999954224E-3,
,,,4.07999992,-447.999954224E-3,
,,,4.08999968,-447.999954224E-3,
,,,4.09999990,-447.999954224E-3,
,,,4.11000013,-447.999954224E-3,
,,,4.11999989,-447.999954224E-3,
,,,4.13000011,-447.999954224E-3,
,,,4.13999987,-447.999954224E-3,
,,,4.15000010,-447.999954224E-3,
,,,4.15999985,-447.999954224E-3,
,,,4.17000008,-447.999954224E-3,
,,,4.17999983,-447.999954224E-3,
,,,4.19000006,-447.999954224E-3,
,,,4.19999981,-447.999954224E-3,
,,,4.21000004,-447.999954224E-3,
,,,4.21999979,-447.999954224E-3,
,,,4.23000002,-447.999954224E-3,
,,,4.23999977,-447.999954224E-3,
,,,4.25000000,-447.999954224E-3,
,,,4.25999975,-447.999954224E-3,
,,,4.26999998,-447.999954224E-3,
,,,4.27999973,-447.999954224E-3,
,,,4.28999996,-447.999954224E-3,
,,,4.29999971,-447.999954224E-3,
,,,4.30999994,-447.999954224E-3,
,,,4.31999969,-447.999954224E-3,
,,,4.32999992,-447.999954224E-3,
,,,4.33999968,-447.999954224E-3,
,,,4.34999990,-447.999954224E-3,
,,,4.36000013,-447.999954224E-3,
,,,4.36999989,-447.999954224E-3,
,,,4.38000011,-447.999954224E-3,
,,,4.38999987,-447.999954224E-3,
,,,4.40000010,-447.999954224E-3,
,,,4.40999985,-447.999954224E-3,
,,,4.42000008,-447.999954224E-3,
,,,4.42999983,-447.999954224E-3,
,,,4.44000006,-447.999954224E-3,
,,,4.44999981,-447.999954224E-3,
,,,4.46000004,-447.999954224E-3,
,,,4.46999979,-447.999954224E-3,
,,,4.48000002,-447.999954224E-3,
,,,4.48999977,-447.999954224E-3,
,,,4.50000000,-447.999954224E-3,
,,,4.50999975,-447.999954224E-3,
,,,4.51999998,-447.999954224E-3,
,,,4.52999973,-447.999954224E-3,
,,,4.53999996,-447.999954224E-3,
,,,4.54999971,-447.999954224E-3,
,,,4.55999994,-447.999954224E-3,
,,,4.56999969,-447.999954224E-3,
,,,4.57999992,-447.999954224E-3,
,,,4.58999968,-447.999954224E-3,
,,,4.59999990,-447.999954224E-3,
,,,4.61000013,-447.999954224E-3,
,,,4.61999989,-447.999954224E-3,
,,,4.63000011,-447.999954224E-3,
,,,4.63999987,-447.999954224E-3,
,,,4.65000010,-447.999954224E-3,
,,,4.65999985,-447.999954224E-3,
,,,4.67000008,-447.999954224E-3,
,,,4.67999983,-447.999954224E-3,
,,,4.69000006,-447.999954224E-3,
,,,4.69999981,-447.999954224E-3,
,,,4.71000004,-447.999954224E-3,
,,,4.71999979,-447.999954224E-3,
,,,4.73000002,-447.999954224E-3,
,,,4.73999977,-447.999954224E-3,
,,,4.75000000,-447.999954224E-3,
,,,4.75999975,-447.999954224E-3,
,,,4.76999998,-447.999954224E-3,
,,,4.77999973,-447.999954224E-3,
,,,4.78999996,-447.999954224E-3,
,,,4.79999971,-447.999954224E-3,
,,,4.80999994,-447.999954224E-3,
,,,4.81999969,-447.999954224E-3,
,,,4.82999992,-447.999954224E-3,
,,,4.83999968,-447.999954224E-3,
,,,4.84999990,-447.999954224E-3,
,,,4.85999966,-447.999954224E-3,
,,,4.86999989,-447.999954224E-3,
,,,4.88000011,-447.999954224E-3,
,,,4.88999987,-447.999954224E-3,
,,,4.90000010,-447.999954224E-3,
,,,4.90999985,-447.999954224E-3,
,,,4.92000008,-447.999954224E-3,
,,,4.92999983,-447.999954224E-3,
,,,4.94000006,-447.999954224E-3,
,,,4.94999981,-447.999954224E-3,
,,,4.96000004,-447.999954224E-3,
,,,4.96999979,-447.999954224E-3,
,,,4.98000002,-447.999954224E-3,
,,,4.98999977,-447.999954224E-3,
,,,5.00000000,-447.999954224E-3,
,,,5.00999975,-447.999954224E-3,
,,,5.01999998,-447.999954224E-3,
,,,5.02999973,-447.999954224E-3,
,,,5.03999996,-447.999954224E-3,
,,,5.04999971,-447.999954224E-3,
,,,5.05999994,-447.999954224E-3,
,,,5.06999969,-447.999954224E-3,
,,,5.07999992,-447.999954224E-3,
,,,5.08999968,-447.999954224E-3,
,,,5.09999990,-447.999954224E-3,
,,,5.10999966,79.999998212E-3,
,,,5.11999989,79.999998212E-3,
,,,5.13000011,95.999993384E-3,
,,,5.13999987,79.999998212E-3,
,,,5.15000010,79.999998212E-3,
,,,5.15999985,79.999998212E-3,
,,,5.17000008,79.999998212E-3,
,,,5.17999983,79.999998212E-3,
,,,5.19000006,79.999998212E-3,
,,,5.19999981,71.999996901E-3,
,,,5.21000004,71.999996901E-3,
,,,5.21999979,79.999998212E-3,
,,,5.23000002,79.999998212E-3,
,,,5.23999977,79.999998212E-3,
,,,5.25000000,79.999998212E-3,
,,,5.25999975,79.999998212E-3,
,,,5.26999998,79.999998212E-3,
,,,5.27999973,79.999998212E-3,
,,,5.28999996,79.999998212E-3,
,,,5.29999971,79.999998212E-3,
,,,5.30999994,79.999998212E-3,
,,,5.31999969,79.999998212E-3,
,,,5.32999992,71.999996901E-3,
,,,5.33999968,79.999998212E-3,
,,,5.34999990,79.999998212E-3,
,,,5.35999966,79.999998212E-3,
,,,5.36999989,79.999998212E-3,
,,,5.38000011,71.999996901E-3,
,,,5.38999987,79.999998212E-3,
,,,5.40000010,79.999998212E-3,
,,,5.40999985,71.999996901E-3,
,,,5.42000008,71.999996901E-3,
,,,5.42999983,71.999996901E-3,
,,,5.44000006,87.999992073E-3,
,,,5.44999981,79.999998212E-3,
,,,5.46000004,79.999998212E-3,
,,,5.46999979,79.999998212E-3,
,,,5.48000002,103.9999947E-3,
,,,5.48999977,79.999998212E-3,
,,,5.50000000,63.999995589E-3,
,,,5.50999975,71.999996901E-3,
,,,5.51999998,63.999995589E-3,
,,,5.52999973,63.999995589E-3,
,,,5.53999996,63.999995589E-3,
,,,5.54999971,71.999996901E-3,
,,,5.55999994,71.999996901E-3,
,,,5.56999969,71.999996901E-3,
,,,5.57999992,71.999996901E-3,
,,,5.58999968,63.999995589E-3,
,,,5.59999990,63.999995589E-3,
,,,5.60999966,87.999992073E-3,
,,,5.61999989,79.999998212E-3,
,,,5.62999964,71.999996901E-3,
,,,5.63999987,71.999996901E-3,
,,,5.65000010,87.999992073E-3,
,,,5.65999985,71.999996901E-3,
,,,5.67000008,71.999996901E-3,
,,,5.67999983,71.999996901E-3,
,,,5.69000006,87.999992073E-3,
,,,5.69999981,79.999998212E-3,
,,,5.71000004,71.999996901E-3,
,,,5.71999979,87.999992073E-3,
,,,5.73000002,63.999995589E-3,
,,,5.73999977,79.999998212E-3,
,,,5.75000000,71.999996901E-3,
,,,5.75999975,87.999992073E-3,
,,,5.76999998,79.999998212E-3,
,,,5.77999973,79.999998212E-3,
,,,5.78999996,71.999996901E-3,
,,,5.79999971,87.999992073E-3,
,,,5.80999994,71.999996901E-3,
,,,5.81999969,79.999998212E-3,
,,,5.82999992,71.999996901E-3,
,,,5.83999968,79.999998212E-3,
,,,5.84999990,71.999996901E-3,
,,,5.85999966,71.999996901E-3,
,,,5.86999989,71.999996901E-3,
,,,5.87999964,63.999995589E-3,
,,,5.88999987,711.999952793E-3,
,,,5.90000010,703.999936581E-3,
,,,5.90999985,703.999936581E-3,
,,,5.92000008,439.999967813E-3,
,,,5.92999983,695.999979973E-3,
,,,5.94000006,695.999979973E-3,
,,,5.94999981,79.999998212E-3,
,,,5.96000004,87.999992073E-3,
,,,5.96999979,71.999996901E-3,
,,,5.98000002,79.999998212E-3,
,,,5.98999977,71.999996901E-3,
,,,6.00000000,79.999998212E-3,
,,,6.00999975,71.999996901E-3,
,,,6.01999998,95.999993384E-3,
,,,6.02999973,103.9999947E-3,
,,,6.03999996,87.999992073E-3,
,,,6.04999971,87.999992073E-3,
,,,6.05999994,87.999992073E-3,
,,,6.06999969,95.999993384E-3,
