code/tests/logs/huawei_vodacom/quellerina/ublox/echo/2.csv

Record Length,2500,Points,0.0,-447.999954224E-3,
Sample Interval,9.999999776E-3,s,9.999999776E-3,-447.999954224E-3,
Trigger Point,0.0,Samples,19.9999996E-3,-447.999954224E-3,
,,,29.99999933E-3,-447.999954224E-3,
,,,39.99999911E-3,-447.999954224E-3,
,,,49.99999702E-3,-447.999954224E-3,
Source,CH1,,59.999998659E-3,-447.999954224E-3,
Vertical Units,Volts,,70.000000298E-3,-447.999954224E-3,
Vertical Scale,204.78123589E-3,,79.999998212E-3,-447.999954224E-3,
Vertical Offset,0,,89.999996126E-3,-447.999954224E-3,
Horizontal Units,s,,99.999994040E-3,-447.999954224E-3,
Horizontal Scale,2.4999999,,109.9999994E-3,-447.999954224E-3,
Pt Fmt,Y,,119.9999973E-3,-447.999954224E-3,
Yzero,-2.81275752,,129.9999952E-3,-447.999954224E-3,
Probe Atten,1.000000,,140.0000006E-3,-447.999954224E-3,
,,,149.99999106E-3,-447.999954224E-3,
Note,TDS 2001C - 10:45:12 PM   2019/09/24,,159.99999642E-3,-447.999954224E-3,
,,,170.00000179E-3,-447.999954224E-3,
,,,179.99999225E-3,-447.999954224E-3,
,,,189.99999762E-3,-447.999954224E-3,
,,,199.99998808E-3,-447.999954224E-3,
,,,209.99999344E-3,-447.999954224E-3,
,,,219.99999881E-3,-447.999954224E-3,
,,,229.99998927E-3,-447.999954224E-3,
,,,239.99999464E-3,-447.999954224E-3,
,,,250.00000000E-3,-447.999954224E-3,
,,,259.99999046E-3,-447.999954224E-3,
,,,269.99998093E-3,-447.999954224E-3,
,,,280.00000119E-3,-447.999954224E-3,
,,,289.99999166E-3,-447.999954224E-3,
,,,299.99998212E-3,-447.999954224E-3,
,,,310.00000238E-3,-447.999954224E-3,
,,,319.99999285E-3,-447.999954224E-3,
,,,329.99998331E-3,-447.999954224E-3,
,,,340.00000358E-3,-447.999954224E-3,
,,,349.99999404E-3,-447.999954224E-3,
,,,359.99998450E-3,-447.999954224E-3,
,,,370.00000477E-3,-447.999954224E-3,
,,,379.99999523E-3,-447.999954224E-3,
,,,389.99998569E-3,-447.999954224E-3,
,,,399.99997616E-3,-447.999954224E-3,
,,,409.999996424E-3,-447.999954224E-3,
,,,419.999986887E-3,-447.999954224E-3,
,,,429.999977350E-3,-447.999954224E-3,
,,,439.999997616E-3,-447.999954224E-3,
,,,449.999988079E-3,-447.999954224E-3,
,,,459.999978542E-3,-447.999954224E-3,
,,,469.999998808E-3,-447.999954224E-3,
,,,479.999989271E-3,-447.999954224E-3,
,,,489.999979734E-3,-447.999954224E-3,
,,,500.000000000E-3,-447.999954224E-3,
,,,509.999990463E-3,-447.999954224E-3,
,,,519.999980927E-3,-447.999954224E-3,
,,,529.999971390E-3,-447.999954224E-3,
,,,539.999961853E-3,-447.999954224E-3,
,,,550.000011921E-3,-447.999954224E-3,
,,,560.000002384E-3,-447.999954224E-3,
,,,569.999992847E-3,-447.999954224E-3,
,,,579.999983311E-3,-447.999954224E-3,
,,,589.999973774E-3,-447.999954224E-3,
,,,599.999964237E-3,-447.999954224E-3,
,,,610.000014305E-3,-447.999954224E-3,
,,,620.000004768E-3,-447.999954224E-3,
,,,629.999995232E-3,-447.999954224E-3,
,,,639.999985695E-3,-447.999954224E-3,
,,,649.999976158E-3,-447.999954224E-3,
,,,659.999966621E-3,-447.999954224E-3,
,,,669.999957085E-3,-447.999954224E-3,
,,,680.000007153E-3,-447.999954224E-3,
,,,689.999997616E-3,-447.999954224E-3,
,,,699.999988079E-3,-447.999954224E-3,
,,,709.999978542E-3,-447.999954224E-3,
,,,719.999969006E-3,-447.999954224E-3,
,,,729.999959469E-3,-447.999954224E-3,
,,,740.000009537E-3,-447.999954224E-3,
,,,750.000000000E-3,-447.999954224E-3,
,,,759.999990463E-3,-447.999954224E-3,
,,,769.999980927E-3,-447.999954224E-3,
,,,779.999971390E-3,-447.999954224E-3,
,,,789.999961853E-3,-447.999954224E-3,
,,,799.999952316E-3,-447.999954224E-3,
,,,810.000002384E-3,-447.999954224E-3,
,,,819.999992847E-3,-447.999954224E-3,
,,,829.999983311E-3,-447.999954224E-3,
,,,839.999973774E-3,-447.999954224E-3,
,,,849.999964237E-3,-447.999954224E-3,
,,,859.999954700E-3,-447.999954224E-3,
,,,870.000004768E-3,-447.999954224E-3,
,,,879.999995232E-3,-447.999954224E-3,
,,,889.999985695E-3,-447.999954224E-3,
,,,899.999976158E-3,-447.999954224E-3,
,,,909.999966621E-3,-447.999954224E-3,
,,,919.999957085E-3,-447.999954224E-3,
,,,930.000007153E-3,-447.999954224E-3,
,,,939.999997616E-3,-447.999954224E-3,
,,,949.999988079E-3,-447.999954224E-3,
,,,959.999978542E-3,-447.999954224E-3,
,,,969.999969006E-3,-447.999954224E-3,
,,,979.999959469E-3,-447.999954224E-3,
,,,989.999949932E-3,-447.999954224E-3,
,,,1.000000,-447.999954224E-3,
,,,1.0100000,-447.999954224E-3,
,,,1.0200000,-447.999954224E-3,
,,,1.0300000,-447.999954224E-3,
,,,1.0400000,-447.999954224E-3,
,,,1.0500000,-447.999954224E-3,
,,,1.0599999,-447.999954224E-3,
,,,1.0699999,-447.999954224E-3,
,,,1.0799999,-447.999954224E-3,
,,,1.0900000,-447.999954224E-3,
,,,1.1000000,-447.999954224E-3,
,,,1.1100000,-447.999954224E-3,
,,,1.1200000,-447.999954224E-3,
,,,1.1300000,-447.999954224E-3,
,,,1.1400000,-447.999954224E-3,
,,,1.1500000,-447.999954224E-3,
,,,1.1600000,-447.999954224E-3,
,,,1.1700000,-447.999954224E-3,
,,,1.1799999,-447.999954224E-3,
,,,1.1899999,-447.999954224E-3,
,,,1.1999999,-447.999954224E-3,
,,,1.2099999,-447.999954224E-3,
,,,1.2200000,-447.999954224E-3,
,,,1.2300000,-447.999954224E-3,
,,,1.2400000,-447.999954224E-3,
,,,1.2500000,-447.999954224E-3,
,,,1.2600000,-447.999954224E-3,
,,,1.2700000,-447.999954224E-3,
,,,1.2800000,-447.999954224E-3,
,,,1.2900000,-447.999954224E-3,
,,,1.3000000,-447.999954224E-3,
,,,1.3099999,-447.999954224E-3,
,,,1.3199999,-447.999954224E-3,
,,,1.3299999,87.999992073E-3,
,,,1.3399999,79.999998212E-3,
,,,1.3500000,79.999998212E-3,
,,,1.3600000,71.999996901E-3,
,,,1.3700000,71.999996901E-3,
,,,1.3800000,79.999998212E-3,
,,,1.3900000,87.999992073E-3,
,,,1.4000000,79.999998212E-3,
,,,1.4100000,71.999996901E-3,
,,,1.4200000,79.999998212E-3,
,,,1.4299999,79.999998212E-3,
,,,1.4399999,79.999998212E-3,
,,,1.4499999,79.999998212E-3,
,,,1.4599999,71.999996901E-3,
,,,1.4699999,79.999998212E-3,
,,,1.4800000,79.999998212E-3,
,,,1.4900000,79.999998212E-3,
,,,1.5000000,71.999996901E-3,
,,,1.5100000,79.999998212E-3,
,,,1.5200000,79.999998212E-3,
,,,1.5300000,87.999992073E-3,
,,,1.5400000,79.999998212E-3,
,,,1.5500000,71.999996901E-3,
,,,1.5599999,71.999996901E-3,
,,,1.5699999,87.999992073E-3,
,,,1.5799999,71.999996901E-3,
,,,1.5899999,55.999994278E-3,
,,,1.5999999,71.999996901E-3,
,,,1.6100000,71.999996901E-3,
,,,1.6200000,71.999996901E-3,
,,,1.6300000,63.999995589E-3,
,,,1.6400000,71.999996901E-3,
,,,1.6500000,71.999996901E-3,
,,,1.6600000,71.999996901E-3,
,,,1.6700000,63.999995589E-3,
,,,1.6799999,63.999995589E-3,
,,,1.6899999,71.999996901E-3,
,,,1.6999999,95.999993384E-3,
,,,1.7099999,95.999993384E-3,
,,,1.7199999,263.99996877E-3,
,,,1.7300000,71.999996901E-3,
,,,1.7400000,255.99998236E-3,
,,,1.7500000,71.999996901E-3,
,,,1.7600000,255.99998236E-3,
,,,1.7700000,71.999996901E-3,
,,,1.7800000,87.999992073E-3,
,,,1.7900000,647.999942303E-3,
,,,1.8000000,71.999996901E-3,
,,,1.8099999,631.999969482E-3,
,,,1.8199999,71.999996901E-3,
,,,1.8299999,631.999969482E-3,
,,,1.8399999,71.999996901E-3,
,,,1.8499999,631.999969482E-3,
,,,1.8600000,71.999996901E-3,
,,,1.8700000,79.999998212E-3,
,,,1.8800000,79.999998212E-3,
,,,1.8900000,71.999996901E-3,
,,,1.9000000,87.999992073E-3,
,,,1.9100000,79.999998212E-3,
,,,1.9200000,79.999998212E-3,
,,,1.9299999,71.999996901E-3,
,,,1.9399999,87.999992073E-3,
,,,1.9499999,63.999995589E-3,
,,,1.9599999,71.999996901E-3,
,,,1.9699999,79.999998212E-3,
,,,1.9799999,663.999974728E-3,
,,,1.9900000,671.999931335E-3,
,,,2.0000000,679.999947548E-3,
,,,2.0100000,679.999947548E-3,
,,,2.0200000,671.999931335E-3,
,,,2.0300000,79.999998212E-3,
,,,2.0400000,71.999996901E-3,
,,,2.0500000,71.999996901E-3,
,,,2.0599999,87.999992073E-3,
,,,2.0699999,71.999996901E-3,
,,,2.0799999,87.999992073E-3,
,,,2.0899999,71.999996901E-3,
,,,2.0999999,95.999993384E-3,
,,,2.1099999,95.999993384E-3,
,,,2.1199999,95.999993384E-3,
,,,2.1299999,79.999998212E-3,
,,,2.1399999,79.999998212E-3,
,,,2.1499999,87.999992073E-3,
,,,2.1599998,103.9999947E-3,
,,,2.1699998,95.999993384E-3,
,,,2.1800001,95.999993384E-3,
,,,2.1900001,79.999998212E-3,
,,,2.2000000,95.999993384E-3,
,,,2.2100000,95.999993384E-3,
,,,2.2200000,87.999992073E-3,
,,,2.2300000,79.999998212E-3,
,,,2.2400000,87.999992073E-3,
,,,2.2500000,71.999996901E-3,
,,,2.2600000,79.999998212E-3,
,,,2.2700000,79.999998212E-3,
,,,2.2800000,87.999992073E-3,
,,,2.2900000,103.9999947E-3,
,,,2.3000000,95.999993384E-3,
,,,2.3099999,103.9999947E-3,
,,,2.3199999,95.999993384E-3,
,,,2.3299999,95.999993384E-3,
,,,2.3399999,79.999998212E-3,
,,,2.3499999,87.999992073E-3,
,,,2.3599999,87.999992073E-3,
,,,2.3699999,79.999998212E-3,
,,,2.3799999,87.999992073E-3,
,,,2.3899999,95.999993384E-3,
,,,2.3999999,79.999998212E-3,
,,,2.4099998,79.999998212E-3,
,,,2.4199998,79.999998212E-3,
,,,2.4299998,87.999992073E-3,
,,,2.4400001,87.999992073E-3,
,,,2.4500000,87.999992073E-3,
,,,2.4600000,79.999998212E-3,
,,,2.4700000,79.999998212E-3,
,,,2.4800000,87.999992073E-3,
,,,2.4900000,87.999992073E-3,
,,,2.5000000,79.999998212E-3,
,,,2.5100000,71.999996901E-3,
,,,2.5200000,87.999992073E-3,
,,,2.5300000,103.9999947E-3,
,,,2.5400000,79.999998212E-3,
,,,2.5500000,87.999992073E-3,
,,,2.5599999,87.999992073E-3,
,,,2.5699999,63.999995589E-3,
,,,2.5799999,87.999992073E-3,
,,,2.5899999,55.999994278E-3,
,,,2.5999999,87.999992073E-3,
,,,2.6099999,87.999992073E-3,
,,,2.6199999,71.999996901E-3,
,,,2.6299999,87.999992073E-3,
,,,2.6399999,79.999998212E-3,
,,,2.6499999,79.999998212E-3,
,,,2.6599998,79.999998212E-3,
,,,2.6699998,71.999996901E-3,
,,,2.6799998,79.999998212E-3,
,,,2.6900001,79.999998212E-3,
,,,2.7000000,71.999996901E-3,
,,,2.7100000,71.999996901E-3,
,,,2.72000003,79.999998212E-3,
,,,2.73000002,79.999998212E-3,
,,,2.74000001,79.999998212E-3,
,,,2.75000000,79.999998212E-3,
,,,2.75999999,79.999998212E-3,
,,,2.76999998,79.999998212E-3,
,,,2.77999997,79.999998212E-3,
,,,2.78999996,87.999992073E-3,
,,,2.79999995,79.999998212E-3,
,,,2.80999994,79.999998212E-3,
,,,2.81999993,71.999996901E-3,
,,,2.82999992,71.999996901E-3,
,,,2.83999991,79.999998212E-3,
,,,2.84999990,87.999992073E-3,
,,,2.85999990,79.999998212E-3,
,,,2.86999989,79.999998212E-3,
,,,2.87999988,87.999992073E-3,
,,,2.88999987,79.999998212E-3,
,,,2.89999986,79.999998212E-3,
,,,2.90999985,71.999996901E-3,
,,,2.91999984,87.999992073E-3,
,,,2.92999983,79.999998212E-3,
,,,2.93999982,87.999992073E-3,
,,,2.95000005,79.999998212E-3,
,,,2.96000004,79.999998212E-3,
,,,2.97000003,79.999998212E-3,
,,,2.98000002,79.999998212E-3,
,,,2.99000001,87.999992073E-3,
,,,3.00000000,79.999998212E-3,
,,,3.00999999,79.999998212E-3,
,,,3.01999998,79.999998212E-3,
,,,3.02999997,79.999998212E-3,
,,,3.03999996,87.999992073E-3,
,,,3.04999995,71.999996901E-3,
,,,3.05999994,79.999998212E-3,
,,,3.06999993,79.999998212E-3,
,,,3.07999992,87.999992073E-3,
,,,3.08999991,87.999992073E-3,
,,,3.09999990,79.999998212E-3,
,,,3.10999990,79.999998212E-3,
,,,3.11999989,79.999998212E-3,
,,,3.12999988,71.999996901E-3,
,,,3.13999987,79.999998212E-3,
,,,3.14999986,79.999998212E-3,
,,,3.15999985,79.999998212E-3,
,,,3.16999984,79.999998212E-3,
,,,3.17999983,79.999998212E-3,
,,,3.18999982,79.999998212E-3,
,,,3.19999981,71.999996901E-3,
,,,3.21000004,79.999998212E-3,
,,,3.22000003,79.999998212E-3,
,,,3.23000002,79.999998212E-3,
,,,3.24000001,71.999996901E-3,
,,,3.25000000,79.999998212E-3,
,,,3.25999999,79.999998212E-3,
,,,3.26999998,79.999998212E-3,
,,,3.27999997,71.999996901E-3,
,,,3.28999996,71.999996901E-3,
,,,3.29999995,87.999992073E-3,
,,,3.30999994,95.999993384E-3,
,,,3.31999993,95.999993384E-3,
,,,3.32999992,87.999992073E-3,
,,,3.33999991,87.999992073E-3,
,,,3.34999990,95.999993384E-3,
,,,3.35999990,87.999992073E-3,
,,,3.36999989,95.999993384E-3,
,,,3.37999988,95.999993384E-3,
,,,3.38999987,95.999993384E-3,
,,,3.39999986,95.999993384E-3,
,,,3.40999985,87.999992073E-3,
,,,3.41999984,87.999992073E-3,
,,,3.42999983,79.999998212E-3,
,,,3.43999982,79.999998212E-3,
,,,3.44999981,79.999998212E-3,
,,,3.46000004,79.999998212E-3,
,,,3.47000003,95.999993384E-3,
,,,3.48000002,79.999998212E-3,
,,,3.49000001,79.999998212E-3,
,,,3.50000000,95.999993384E-3,
,,,3.50999999,71.999996901E-3,
,,,3.51999998,71.999996901E-3,
,,,3.52999997,79.999998212E-3,
,,,3.53999996,79.999998212E-3,
,,,3.54999995,95.999993384E-3,
,,,3.55999994,79.999998212E-3,
,,,3.56999993,111.9999886E-3,
,,,3.57999992,111.9999886E-3,
,,,3.58999991,95.999993384E-3,
,,,3.59999990,95.999993384E-3,
,,,3.60999990,95.999993384E-3,
,,,3.61999989,87.999992073E-3,
,,,3.62999988,95.999993384E-3,
,,,3.63999987,87.999992073E-3,
,,,3.64999986,79.999998212E-3,
,,,3.65999985,111.9999886E-3,
,,,3.66999984,79.999998212E-3,
,,,3.67999983,95.999993384E-3,
,,,3.68999982,79.999998212E-3,
,,,3.69999981,87.999992073E-3,
,,,3.70999980,71.999996901E-3,
,,,3.72000003,63.999995589E-3,
,,,3.73000002,63.999995589E-3,
,,,3.74000001,63.999995589E-3,
,,,3.75000000,71.999996901E-3,
,,,3.75999999,71.999996901E-3,
,,,3.76999998,71.999996901E-3,
,,,3.77999997,71.999996901E-3,
,,,3.78999996,103.9999947E-3,
,,,3.79999995,79.999998212E-3,
,,,3.80999994,71.999996901E-3,
,,,3.81999993,255.99998236E-3,
,,,3.82999992,71.999996901E-3,
,,,3.83999991,263.99996877E-3,
,,,3.84999990,71.999996901E-3,
,,,3.85999990,255.99998236E-3,
,,,3.86999989,63.999995589E-3,
,,,3.87999988,103.9999947E-3,
,,,3.88999987,95.999993384E-3,
,,,3.89999986,79.999998212E-3,
,,,3.90999985,71.999996901E-3,
,,,3.91999984,71.999996901E-3,
,,,3.92999983,71.999996901E-3,
,,,3.93999982,71.999996901E-3,
,,,3.94999981,71.999996901E-3,
,,,3.95999980,591.999948025E-3,
,,,3.97000003,599.999964237E-3,
,,,3.98000002,599.999964237E-3,
,,,3.99000001,599.999964237E-3,
,,,4.00000000,735.999941826E-3,
,,,4.00999975,567.999958992E-3,
,,,4.01999998,95.999993384E-3,
,,,4.02999973,1.0639999,
,,,4.03999996,1.0799999,
,,,4.04999971,1.0799999,
,,,4.05999994,1.0799999,
,,,4.06999969,79.999998212E-3,
,,,4.07999992,607.999980450E-3,
,,,4.08999968,623.999953270E-3,
,,,4.09999990,103.9999947E-3,
,,,4.11000013,1.5919999,
,,,4.11999989,1.5919999,
,,,4.13000011,567.999958992E-3,
,,,4.13999987,671.999931335E-3,
,,,4.15000010,679.999947548E-3,
,,,4.15999985,671.999931335E-3,
,,,4.17000008,663.999974728E-3,
,,,4.17999983,647.999942303E-3,
,,,4.19000006,631.999969482E-3,
,,,4.19999981,655.999958515E-3,
,,,4.21000004,647.999942303E-3,
,,,4.21999979,655.999958515E-3,
,,,4.23000002,655.999958515E-3,
,,,4.23999977,647.999942303E-3,
,,,4.25000000,631.999969482E-3,
,,,4.25999975,103.9999947E-3,
,,,4.26999998,639.999985695E-3,
,,,4.27999973,615.999937057E-3,
,,,4.28999996,623.999953270E-3,
,,,4.29999971,623.999953270E-3,
,,,4.30999994,623.999953270E-3,
,,,4.31999969,127.9999912E-3,
,,,4.32999992,623.999953270E-3,
,,,4.33999968,631.999969482E-3,
,,,4.34999990,623.999953270E-3,
,,,4.36000013,631.999969482E-3,
,,,4.36999989,631.999969482E-3,
,,,4.38000011,735.999941826E-3,
,,,4.38999987,639.999985695E-3,
,,,4.40000010,623.999953270E-3,
,,,4.40999985,615.999937057E-3,
,,,4.42000008,631.999969482E-3,
,,,4.42999983,615.999937057E-3,
,,,4.44000006,87.999992073E-3,
,,,4.44999981,639.999985695E-3,
,,,4.46000004,103.9999947E-3,
,,,4.46999979,103.9999947E-3,
,,,4.48000002,631.999969482E-3,
,,,4.48999977,95.999993384E-3,
,,,4.50000000,1.5919999,
,,,4.50999975,575.999975204E-3,
,,,4.51999998,623.999953270E-3,
,,,4.52999973,79.999998212E-3,
,,,4.53999996,623.999953270E-3,
,,,4.54999971,727.999925613E-3,
,,,4.55999994,639.999985695E-3,
,,,4.56999969,439.999967813E-3,
,,,4.57999992,631.999969482E-3,
,,,4.58999968,79.999998212E-3,
,,,4.59999990,671.999931335E-3,
,,,4.61000013,79.999998212E-3,
,,,4.61999989,71.999996901E-3,
,,,4.63000011,719.999969006E-3,
,,,4.63999987,727.999925613E-3,
,,,4.65000010,79.999998212E-3,
,,,4.65999985,639.999985695E-3,
,,,4.67000008,743.999958038E-3,
,,,4.67999983,719.999969006E-3,
,,,4.69000006,79.999998212E-3,
,,,4.69999981,631.999969482E-3,
,,,4.71000004,735.999941826E-3,
,,,4.71999979,639.999985695E-3,
,,,4.73000002,447.999954224E-3,
,,,4.73999977,631.999969482E-3,
,,,4.75000000,79.999998212E-3,
,,,4.75999975,663.999974728E-3,
,,,4.76999998,79.999998212E-3,
,,,4.77999973,71.999996901E-3,
,,,4.78999996,639.999985695E-3,
,,,4.79999971,623.999953270E-3,
,,,4.80999994,95.999993384E-3,
,,,4.81999969,95.999993384E-3,
,,,4.82999992,639.999985695E-3,
,,,4.83999968,623.999953270E-3,
,,,4.84999990,111.9999886E-3,
,,,4.85999966,95.999993384E-3,
,,,4.86999989,743.999958038E-3,
,,,4.88000011,631.999969482E-3,
,,,4.88999987,439.999967813E-3,
,,,4.90000010,631.999969482E-3,
,,,4.90999985,87.999992073E-3,
,,,4.92000008,679.999947548E-3,
,,,4.92999983,79.999998212E-3,
,,,4.94000006,79.999998212E-3,
,,,4.94999981,647.999942303E-3,
,,,4.96000004,631.999969482E-3,
,,,4.96999979,103.9999947E-3,
,,,4.98000002,95.999993384E-3,
,,,4.98999977,639.999985695E-3,
,,,5.00000000,623.999953270E-3,
,,,5.00999975,103.9999947E-3,
,,,5.01999998,87.999992073E-3,
,,,5.02999973,727.999925613E-3,
,,,5.03999996,647.999942303E-3,
,,,5.04999971,439.999967813E-3,
,,,5.05999994,623.999953270E-3,
,,,5.06999969,79.999998212E-3,
,,,5.07999992,671.999931335E-3,
,,,5.08999968,79.999998212E-3,
,,,5.09999990,79.999998212E-3,
,,,5.10999966,647.999942303E-3,
,,,5.11999989,623.999953270E-3,
,,,5.13000011,95.999993384E-3,
,,,5.13999987,95.999993384E-3,
,,,5.15000010,639.999985695E-3,
,,,5.15999985,631.999969482E-3,
,,,5.17000008,103.9999947E-3,
,,,5.17999983,95.999993384E-3,
,,,5.19000006,743.999958038E-3,
,,,5.19999981,639.999985695E-3,
,,,5.21000004,439.999967813E-3,
,,,5.21999979,631.999969482E-3,
,,,5.23000002,87.999992073E-3,
,,,5.23999977,679.999947548E-3,
,,,5.25000000,71.999996901E-3,
,,,5.25999975,79.999998212E-3,
,,,5.26999998,655.999958515E-3,
,,,5.27999973,631.999969482E-3,
,,,5.28999996,95.999993384E-3,
,,,5.29999971,95.999993384E-3,
,,,5.30999994,647.999942303E-3,
,,,5.31999969,631.999969482E-3,
,,,5.32999992,95.999993384E-3,
,,,5.33999968,79.999998212E-3,
,,,5.34999990,751.999974251E-3,
,,,5.35999966,647.999942303E-3,
,,,5.36999989,431.999981403E-3,
,,,5.38000011,631.999969482E-3,
,,,5.38999987,79.999998212E-3,
,,,5.40000010,679.999947548E-3,
,,,5.40999985,71.999996901E-3,
,,,5.42000008,79.999998212E-3,
,,,5.42999983,647.999942303E-3,
,,,5.44000006,623.999953270E-3,
,,,5.44999981,79.999998212E-3,
,,,5.46000004,87.999992073E-3,
,,,5.46999979,647.999942303E-3,
,,,5.48000002,639.999985695E-3,
,,,5.48999977,87.999992073E-3,
,,,5.50000000,95.999993384E-3,
,,,5.50999975,655.999958515E-3,
,,,5.51999998,639.999985695E-3,
,,,5.52999973,95.999993384E-3,
,,,5.53999996,87.999992073E-3,
,,,5.54999971,71.999996901E-3,
,,,5.55999994,655.999958515E-3,
,,,5.56999969,647.999942303E-3,
,,,5.57999992,87.999992073E-3,
,,,5.58999968,647.999942303E-3,
,,,5.59999990,663.999974728E-3,
,,,5.60999966,631.999969482E-3,
,,,5.61999989,79.999998212E-3,
,,,5.62999964,647.999942303E-3,
,,,5.63999987,647.999942303E-3,
,,,5.65000010,103.9999947E-3,
,,,5.65999985,95.999993384E-3,
,,,5.67000008,103.9999947E-3,
,,,5.67999983,647.999942303E-3,
,,,5.69000006,743.999958038E-3,
,,,5.69999981,679.999947548E-3,
,,,5.71000004,87.999992073E-3,
,,,5.71999979,711.999952793E-3,
,,,5.73000002,703.999936581E-3,
,,,5.73999977,95.999993384E-3,
,,,5.75000000,95.999993384E-3,
,,,5.75999975,79.999998212E-3,
,,,5.76999998,87.999992073E-3,
,,,5.77999973,87.999992073E-3,
,,,5.78999996,79.999998212E-3,
,,,5.79999971,79.999998212E-3,
,,,5.80999994,455.999970436E-3,
,,,5.81999969,447.999954224E-3,
,,,5.82999992,447.999954224E-3,
,,,5.83999968,95.999993384E-3,
,,,5.84999990,87.999992073E-3,
,,,5.85999966,87.999992073E-3,
,,,5.86999989,79.999998212E-3,
,,,5.87999964,87.999992073E-3,
,,,5.88999987,87.999992073E-3,
,,,5.90000010,71.999996901E-3,
,,,5.90999985,71.999996901E-3,
,,,5.92000008,63.999995589E-3,
,,,5.92999983,71.999996901E-3,
,,,5.94000006,71.999996901E-3,
,,,5.94999981,79.999998212E-3,
,,,5.96000004,71.999996901E-3,
,,,5.96999979,71.999996901E-3,
,,,5.98000002,79.999998212E-3,
,,,5.98999977,79.999998212E-3,
,,,6.00000000,71.999996901E-3,
,,,6.00999975,63.999995589E-3,
,,,6.01999998,63.999995589E-3,
,,,6.02999973,63.999995589E-3,
,,,6.03999996,71.999996901E-3,
,,,6.04999971,71.999996901E-3,
,,,6.05999994,71.999996901E-3,
,,,6.06999969,79.999998212E-3,
,,,6.07999992,79.999998212E-3,
,,,6.08999968,71.999996901E-3,
,,,6.09999990,63.999995589E-3,
,,,6.10999966,71.999996901E-3,
,,,6.11999989,71.999996901E-3,
,,,6.12999964,71.999996901E-3,
