code/tests/logs/test_logs/cdrx30.csv

Record Length,2500,Points,0.0,7.999999449E-3,
Sample Interval,100.0000015E-3,s,100.0000015E-3,15.9999989E-3,
Trigger Point,0.0,Samples,200.00000298E-3,15.9999989E-3,
,,,300.00001192E-3,7.999999449E-3,
,,,400.00000596E-3,7.999999449E-3,
,,,500.000000000E-3,7.999999449E-3,
Source,CH1,,600.000023842E-3,15.9999989E-3,
Vertical Units,Volts,,699.999988079E-3,7.999999449E-3,
Vertical Scale,204.78123589E-3,,800.000011921E-3,0.0,
Vertical Offset,0,,900.000035763E-3,15.9999989E-3,
Horizontal Units,s,,1.000000,7.999999449E-3,
Horizontal Scale,25.00000037,,1.1000000,15.9999989E-3,
Pt Fmt,Y,,1.2000000,7.999999449E-3,
Yzero,-3.16435221,,1.3000001,15.9999989E-3,
Probe Atten,1.000000,,1.4000000,15.9999989E-3,
,,,1.5000000,7.999999449E-3,
Note,TDS 2001C - 2:07:13 PM   2019/06/16,,1.6000000,0.0,
,,,1.7000000,15.9999989E-3,
,,,1.8000001,7.999999449E-3,
,,,1.9000000,15.9999989E-3,
,,,2.0000000,7.999999449E-3,
,,,2.1000001,0.0,
,,,2.2000000,7.999999449E-3,
,,,2.3000000,7.999999449E-3,
,,,2.4000001,7.999999449E-3,
,,,2.5000000,7.999999449E-3,
,,,2.6000001,15.9999989E-3,
,,,2.7000000,15.9999989E-3,
,,,2.79999995,7.999999449E-3,
,,,2.90000010,7.999999449E-3,
,,,3.00000000,7.999999449E-3,
,,,3.10000014,15.9999989E-3,
,,,3.20000005,15.9999989E-3,
,,,3.29999995,7.999999449E-3,
,,,3.40000010,0.0,
,,,3.50000000,7.999999449E-3,
,,,3.60000014,15.9999989E-3,
,,,3.70000005,15.9999989E-3,
,,,3.79999995,15.9999989E-3,
,,,3.90000010,7.999999449E-3,
,,,4.00000000,0.0,
,,,4.09999990,7.999999449E-3,
,,,4.20000029,7.999999449E-3,
,,,4.30000019,7.999999449E-3,
,,,4.40000010,15.9999989E-3,
,,,4.50000000,7.999999449E-3,
,,,4.59999990,7.999999449E-3,
,,,4.70000029,7.999999449E-3,
,,,4.80000019,7.999999449E-3,
,,,4.90000010,7.999999449E-3,
,,,5.00000000,0.0,
,,,5.09999990,7.999999449E-3,
,,,5.20000029,15.9999989E-3,
,,,5.30000019,15.9999989E-3,
,,,5.40000010,7.999999449E-3,
,,,5.50000000,7.999999449E-3,
,,,5.59999990,0.0,
,,,5.70000029,7.999999449E-3,
,,,5.80000019,7.999999449E-3,
,,,5.90000010,7.999999449E-3,
,,,6.00000000,7.999999449E-3,
,,,6.09999990,7.999999449E-3,
,,,6.20000029,7.999999449E-3,
,,,6.30000019,15.9999989E-3,
,,,6.40000010,15.9999989E-3,
,,,6.50000000,0.0,
,,,6.59999990,15.9999989E-3,
,,,6.70000029,15.9999989E-3,
,,,6.80000019,7.999999449E-3,
,,,6.90000010,7.999999449E-3,
,,,7.00000000,0.0,
,,,7.09999990,15.9999989E-3,
,,,7.20000029,15.9999989E-3,
,,,7.30000019,15.9999989E-3,
,,,7.400000095,15.9999989E-3,
,,,7.500000000,0.0,
,,,7.599999905,7.999999449E-3,
,,,7.700000286,0.0,
,,,7.800000191,7.999999449E-3,
,,,7.900000095,15.9999989E-3,
,,,8.000000000,7.999999449E-3,
,,,8.100000381,15.9999989E-3,
,,,8.199999809,7.999999449E-3,
,,,8.300000191,7.999999449E-3,
,,,8.400000572,7.999999449E-3,
,,,8.500000000,7.999999449E-3,
,,,8.600000381,7.999999449E-3,
,,,8.699999809,7.999999449E-3,
,,,8.800000191,7.999999449E-3,
,,,8.900000572,7.999999449E-3,
,,,9.000000000,15.9999989E-3,
,,,9.100000381,7.999999449E-3,
,,,9.199999809,15.9999989E-3,
,,,9.300000191,15.9999989E-3,
,,,9.400000572,15.9999989E-3,
,,,9.500000000,15.9999989E-3,
,,,9.600000381,7.999999449E-3,
,,,9.699999809,15.9999989E-3,
,,,9.800000191,15.9999989E-3,
,,,9.900000572,0.0,
,,,10.0000000,0.0,
,,,10.1000004,15.9999989E-3,
,,,10.1999998,0.0,
,,,10.3000002,7.999999449E-3,
,,,10.4000006,7.999999449E-3,
,,,10.5000000,7.999999449E-3,
,,,10.6000004,7.999999449E-3,
,,,10.6999998,7.999999449E-3,
,,,10.8000002,7.999999449E-3,
,,,10.9000006,7.999999449E-3,
,,,11.0000000,7.999999449E-3,
,,,11.1000004,15.9999989E-3,
,,,11.1999998,7.999999449E-3,
,,,11.3000002,7.999999449E-3,
,,,11.4000006,7.999999449E-3,
,,,11.5000000,7.999999449E-3,
,,,11.6000004,0.0,
,,,11.6999998,15.9999989E-3,
,,,11.8000002,7.999999449E-3,
,,,11.9000006,7.999999449E-3,
,,,12.0000000,7.999999449E-3,
,,,12.1000004,15.9999989E-3,
,,,12.1999998,15.9999989E-3,
,,,12.3000002,15.9999989E-3,
,,,12.4000006,7.999999449E-3,
,,,12.5000000,7.999999449E-3,
,,,12.6000004,0.0,
,,,12.6999998,0.0,
,,,12.8000002,0.0,
,,,12.9000006,7.999999449E-3,
,,,13.0000000,15.9999989E-3,
,,,13.1000004,7.999999449E-3,
,,,13.1999998,7.999999449E-3,
,,,13.3000002,7.999999449E-3,
,,,13.4000006,0.0,
,,,13.5000000,0.0,
,,,13.6000004,15.9999989E-3,
,,,13.6999998,15.9999989E-3,
,,,13.8000002,15.9999989E-3,
,,,13.9000006,15.9999989E-3,
,,,14.0000000,0.0,
,,,14.1000004,7.999999449E-3,
,,,14.1999998,7.999999449E-3,
,,,14.3000002,7.999999449E-3,
,,,14.4000006,15.9999989E-3,
,,,14.5000000,7.999999449E-3,
,,,14.6000004,7.999999449E-3,
,,,14.6999998,7.999999449E-3,
,,,14.8000002,7.999999449E-3,
,,,14.9000006,7.999999449E-3,
,,,15.0000000,7.999999449E-3,
,,,15.1000004,0.0,
,,,15.1999998,15.9999989E-3,
,,,15.3000002,7.999999449E-3,
,,,15.4000006,7.999999449E-3,
,,,15.5000000,15.9999989E-3,
,,,15.6000004,15.9999989E-3,
,,,15.6999998,7.999999449E-3,
,,,15.8000002,0.0,
,,,15.9000006,15.9999989E-3,
,,,16.0000000,15.9999989E-3,
,,,16.1000004,7.999999449E-3,
,,,16.2000008,7.999999449E-3,
,,,16.3000011,7.999999449E-3,
,,,16.3999996,15.9999989E-3,
,,,16.5000000,7.999999449E-3,
,,,16.6000004,7.999999449E-3,
,,,16.7000008,7.999999449E-3,
,,,16.8000011,15.9999989E-3,
,,,16.8999996,15.9999989E-3,
,,,17.0000000,7.999999449E-3,
,,,17.1000004,7.999999449E-3,
,,,17.2000008,15.9999989E-3,
,,,17.3000011,7.999999449E-3,
,,,17.3999996,39.99999911E-3,
,,,17.5000000,15.9999989E-3,
,,,17.6000004,15.9999989E-3,
,,,17.7000008,127.9999912E-3,
,,,17.8000011,463.999956846E-3,
,,,17.8999996,439.999967813E-3,
,,,18.0000000,471.999973059E-3,
,,,18.1000004,503.999948502E-3,
,,,18.2000008,551.999986172E-3,
,,,18.3000011,607.999980450E-3,
,,,18.3999996,159.99999642E-3,
,,,18.5000000,159.99999642E-3,
,,,18.6000004,175.99998415E-3,
,,,18.7000008,151.99999511E-3,
,,,18.8000011,151.99999511E-3,
,,,18.8999996,135.9999925E-3,
,,,19.0000000,175.99998415E-3,
,,,19.1000004,111.9999886E-3,
,,,19.2000008,167.99998283E-3,
,,,19.3000011,167.99998283E-3,
,,,19.3999996,167.99998283E-3,
,,,19.5000000,167.99998283E-3,
,,,19.6000004,847.999930382E-3,
,,,19.7000008,975.999951363E-3,
,,,19.8000011,655.999958515E-3,
,,,19.8999996,127.9999912E-3,
,,,20.0000000,159.99999642E-3,
,,,20.10000038,159.99999642E-3,
,,,20.20000076,127.9999912E-3,
,,,20.30000114,103.9999947E-3,
,,,20.39999962,79.999998212E-3,
,,,20.50000000,87.999992073E-3,
,,,20.60000038,567.999958992E-3,
,,,20.70000076,567.999958992E-3,
,,,20.80000114,775.999963284E-3,
,,,20.89999962,151.99999511E-3,
,,,21.00000000,135.9999925E-3,
,,,21.10000038,143.9999938E-3,
,,,21.20000076,127.9999912E-3,
,,,21.30000114,87.999992073E-3,
,,,21.39999962,87.999992073E-3,
,,,21.50000000,79.999998212E-3,
,,,21.60000038,599.999964237E-3,
,,,21.70000076,799.999952316E-3,
,,,21.80000114,687.999963760E-3,
,,,21.89999962,111.9999886E-3,
,,,22.00000000,1.6639999,
,,,22.10000038,783.999919891E-3,
,,,22.20000076,807.999968529E-3,
,,,22.30000114,807.999968529E-3,
,,,22.39999962,119.9999899E-3,
,,,22.50000000,815.999925137E-3,
,,,22.60000038,887.999951839E-3,
,,,22.70000076,911.999940872E-3,
,,,22.80000114,111.9999886E-3,
,,,22.89999962,591.999948025E-3,
,,,23.00000000,823.999941349E-3,
,,,23.10000038,127.9999912E-3,
,,,23.20000076,975.999951363E-3,
,,,23.30000114,791.999936104E-3,
,,,23.39999962,799.999952316E-3,
,,,23.50000000,807.999968529E-3,
,,,23.60000038,103.9999947E-3,
,,,23.70000076,751.999974251E-3,
,,,23.80000114,807.999968529E-3,
,,,23.89999962,967.999935150E-3,
,,,24.00000000,967.999935150E-3,
,,,24.10000038,815.999925137E-3,
,,,24.20000076,815.999925137E-3,
,,,24.30000114,815.999925137E-3,
,,,24.39999962,103.9999947E-3,
,,,24.50000000,759.999930859E-3,
,,,24.60000038,815.999925137E-3,
,,,24.70000076,967.999935150E-3,
,,,24.80000114,967.999935150E-3,
,,,24.89999962,815.999925137E-3,
,,,25.00000000,815.999925137E-3,
,,,25.10000038,815.999925137E-3,
,,,25.20000076,103.9999947E-3,
,,,25.30000114,767.999947071E-3,
,,,25.39999962,815.999925137E-3,
,,,25.50000000,967.999935150E-3,
,,,25.60000038,567.999958992E-3,
,,,25.70000076,823.999941349E-3,
,,,25.80000114,831.999957561E-3,
,,,25.89999962,823.999941349E-3,
,,,26.00000000,95.999993384E-3,
,,,26.10000038,767.999947071E-3,
,,,26.20000076,823.999941349E-3,
,,,26.30000114,967.999935150E-3,
,,,26.39999962,967.999935150E-3,
,,,26.50000000,831.999957561E-3,
,,,26.60000038,823.999941349E-3,
,,,26.70000076,823.999941349E-3,
,,,26.80000114,103.9999947E-3,
,,,26.89999962,767.999947071E-3,
,,,27.00000000,831.999957561E-3,
,,,27.10000038,967.999935150E-3,
,,,27.20000076,967.999935150E-3,
,,,27.30000114,839.999914169E-3,
,,,27.39999962,839.999914169E-3,
,,,27.50000000,839.999914169E-3,
,,,27.60000038,103.9999947E-3,
,,,27.70000076,767.999947071E-3,
,,,27.80000114,847.999930382E-3,
,,,27.89999962,967.999935150E-3,
,,,28.00000000,975.999951363E-3,
,,,28.10000038,847.999930382E-3,
,,,28.20000076,847.999930382E-3,
,,,28.30000114,855.999946594E-3,
,,,28.39999962,103.9999947E-3,
,,,28.50000000,767.999947071E-3,
,,,28.60000038,855.999946594E-3,
,,,28.70000076,983.999907970E-3,
,,,28.80000114,967.999935150E-3,
,,,28.89999962,863.999962807E-3,
,,,29.00000000,871.999919415E-3,
,,,29.10000038,871.999919415E-3,
,,,29.20000076,95.999993384E-3,
,,,29.30000114,775.999963284E-3,
,,,29.39999962,863.999962807E-3,
,,,29.50000000,967.999935150E-3,
,,,29.60000038,975.999951363E-3,
,,,29.70000076,871.999919415E-3,
,,,29.80000114,871.999919415E-3,
,,,29.89999962,887.999951839E-3,
,,,30.00000000,103.9999947E-3,
,,,30.10000038,775.999963284E-3,
,,,30.20000076,887.999951839E-3,
,,,30.30000114,967.999935150E-3,
,,,30.39999962,975.999951363E-3,
,,,30.50000000,887.999951839E-3,
,,,30.60000038,887.999951839E-3,
,,,30.70000076,887.999951839E-3,
,,,30.80000114,79.999998212E-3,
,,,30.89999962,799.999952316E-3,
,,,31.00000000,895.999908447E-3,
,,,31.10000038,975.999951363E-3,
,,,31.20000076,975.999951363E-3,
,,,31.30000114,903.999924660E-3,
,,,31.39999962,903.999924660E-3,
,,,31.50000000,887.999951839E-3,
,,,31.60000038,103.9999947E-3,
,,,31.70000076,767.999947071E-3,
,,,31.80000114,895.999908447E-3,
,,,31.89999962,975.999951363E-3,
,,,32.00000000,975.999951363E-3,
,,,32.10000229,911.999940872E-3,
,,,32.20000076,895.999908447E-3,
,,,32.29999924,903.999924660E-3,
,,,32.40000153,103.9999947E-3,
,,,32.50000000,783.999919891E-3,
,,,32.60000229,903.999924660E-3,
,,,32.70000076,983.999907970E-3,
,,,32.79999924,975.999951363E-3,
,,,32.90000153,903.999924660E-3,
,,,33.00000000,919.999957085E-3,
,,,33.10000229,911.999940872E-3,
,,,33.20000076,111.9999886E-3,
,,,33.29999924,775.999963284E-3,
,,,33.40000153,911.999940872E-3,
,,,33.50000000,975.999951363E-3,
,,,33.60000229,983.999907970E-3,
,,,33.70000076,919.999957085E-3,
,,,33.79999924,911.999940872E-3,
,,,33.90000153,919.999957085E-3,
,,,34.00000000,103.9999947E-3,
,,,34.10000229,783.999919891E-3,
,,,34.20000076,903.999924660E-3,
,,,34.29999924,983.999907970E-3,
,,,34.40000153,983.999907970E-3,
,,,34.50000000,927.999913692E-3,
,,,34.60000229,919.999957085E-3,
,,,34.70000076,479.999959469E-3,
,,,34.79999924,463.999956846E-3,
,,,34.90000153,495.999962091E-3,
,,,35.00000000,535.999953747E-3,
,,,35.10000229,975.999951363E-3,
,,,35.20000076,975.999951363E-3,
,,,35.29999924,927.999913692E-3,
,,,35.40000153,927.999913692E-3,
,,,35.50000000,935.999929905E-3,
,,,35.60000229,111.9999886E-3,
,,,35.70000076,831.999957561E-3,
,,,35.79999924,935.999929905E-3,
,,,35.90000153,983.999907970E-3,
,,,36.00000000,583.999931812E-3,
,,,36.10000229,935.999929905E-3,
,,,36.20000076,935.999929905E-3,
,,,36.29999924,943.999946117E-3,
,,,36.40000153,103.9999947E-3,
,,,36.50000000,823.999941349E-3,
,,,36.60000229,935.999929905E-3,
,,,36.70000076,975.999951363E-3,
,,,36.79999924,967.999935150E-3,
,,,36.90000153,935.999929905E-3,
,,,37.00000000,943.999946117E-3,
,,,37.10000229,943.999946117E-3,
,,,37.20000076,111.9999886E-3,
,,,37.29999924,847.999930382E-3,
,,,37.40000153,943.999946117E-3,
,,,37.50000000,975.999951363E-3,
,,,37.60000229,975.999951363E-3,
,,,37.70000076,951.999962330E-3,
,,,37.79999924,951.999962330E-3,
,,,37.90000153,943.999946117E-3,
,,,38.00000000,111.9999886E-3,
,,,38.10000229,847.999930382E-3,
,,,38.20000076,943.999946117E-3,
,,,38.29999924,975.999951363E-3,
,,,38.40000153,975.999951363E-3,
,,,38.50000000,943.999946117E-3,
,,,38.60000229,951.999962330E-3,
,,,38.70000076,951.999962330E-3,
,,,38.79999924,103.9999947E-3,
,,,38.90000153,839.999914169E-3,
,,,39.00000000,943.999946117E-3,
,,,39.10000229,975.999951363E-3,
,,,39.20000076,983.999907970E-3,
,,,39.29999924,951.999962330E-3,
,,,39.40000153,951.999962330E-3,
,,,39.50000000,951.999962330E-3,
,,,39.60000229,103.9999947E-3,
,,,39.70000076,855.999946594E-3,
,,,39.79999924,935.999929905E-3,
,,,39.90000153,975.999951363E-3,
,,,40.00000000,975.999951363E-3,
,,,40.10000229,951.999962330E-3,
,,,40.20000076,959.999918938E-3,
,,,40.29999924,951.999962330E-3,
,,,40.40000153,103.9999947E-3,
,,,40.50000000,831.999957561E-3,
,,,40.60000229,951.999962330E-3,
,,,40.70000076,983.999907970E-3,
,,,40.79999924,567.999958992E-3,
,,,40.90000153,959.999918938E-3,
,,,41.00000000,959.999918938E-3,
,,,41.10000229,959.999918938E-3,
,,,41.20000076,95.999993384E-3,
,,,41.29999924,847.999930382E-3,
,,,41.40000153,951.999962330E-3,
,,,41.50000000,983.999907970E-3,
,,,41.60000229,983.999907970E-3,
,,,41.70000076,943.999946117E-3,
,,,41.79999924,943.999946117E-3,
,,,41.90000153,951.999962330E-3,
,,,42.00000000,103.9999947E-3,
,,,42.10000229,839.999914169E-3,
,,,42.20000076,951.999962330E-3,
,,,42.29999924,975.999951363E-3,
,,,42.40000153,975.999951363E-3,
,,,42.50000000,951.999962330E-3,
,,,42.60000229,951.999962330E-3,
,,,42.70000076,951.999962330E-3,
,,,42.79999924,103.9999947E-3,
,,,42.90000153,823.999941349E-3,
,,,43.00000000,951.999962330E-3,
,,,43.10000229,983.999907970E-3,
,,,43.20000076,975.999951363E-3,
,,,43.29999924,959.999918938E-3,
,,,43.40000153,951.999962330E-3,
,,,43.50000000,951.999962330E-3,
,,,43.60000229,103.9999947E-3,
,,,43.70000076,815.999925137E-3,
,,,43.79999924,943.999946117E-3,
,,,43.90000153,975.999951363E-3,
,,,44.00000000,975.999951363E-3,
,,,44.10000229,943.999946117E-3,
,,,44.20000076,951.999962330E-3,
,,,44.29999924,943.999946117E-3,
,,,44.40000153,103.9999947E-3,
,,,44.50000000,807.999968529E-3,
,,,44.60000229,951.999962330E-3,
,,,44.70000076,967.999935150E-3,
,,,44.79999924,967.999935150E-3,
,,,44.90000153,943.999946117E-3,
,,,45.00000000,951.999962330E-3,
,,,45.10000229,951.999962330E-3,
,,,45.20000076,111.9999886E-3,
,,,45.29999924,799.999952316E-3,
,,,45.40000153,943.999946117E-3,
,,,45.50000000,959.999918938E-3,
,,,45.60000229,975.999951363E-3,
,,,45.70000076,951.999962330E-3,
,,,45.79999924,951.999962330E-3,
,,,45.90000153,943.999946117E-3,
,,,46.00000000,79.999998212E-3,
,,,46.10000229,807.999968529E-3,
,,,46.20000076,951.999962330E-3,
,,,46.29999924,967.999935150E-3,
,,,46.40000153,567.999958992E-3,
,,,46.50000000,951.999962330E-3,
,,,46.60000229,959.999918938E-3,
,,,46.70000076,959.999918938E-3,
,,,46.79999924,1.6639999,
,,,46.90000153,103.9999947E-3,
,,,47.00000000,87.999992073E-3,
,,,47.10000229,79.999998212E-3,
,,,47.20000076,87.999992073E-3,
,,,47.29999924,79.999998212E-3,
,,,47.40000153,87.999992073E-3,
,,,47.50000000,79.999998212E-3,
,,,47.60000229,87.999992073E-3,
,,,47.70000076,95.999993384E-3,
,,,47.79999924,87.999992073E-3,
,,,47.90000153,87.999992073E-3,
,,,48.00000000,15.9999989E-3,
,,,48.10000229,15.9999989E-3,
,,,48.20000076,7.999999449E-3,
,,,48.29999924,7.999999449E-3,
,,,48.40000153,0.0,
,,,48.50000000,15.9999989E-3,
,,,48.60000229,95.999993384E-3,
,,,48.70000076,95.999993384E-3,
,,,48.79999924,7.999999449E-3,
,,,48.90000153,7.999999449E-3,
,,,49.00000000,7.999999449E-3,
,,,49.10000229,7.999999449E-3,
,,,49.20000076,7.999999449E-3,
,,,49.29999924,7.999999449E-3,
,,,49.40000153,15.9999989E-3,
,,,49.50000000,7.999999449E-3,
,,,49.60000229,15.9999989E-3,
,,,49.70000076,7.999999449E-3,
,,,49.79999924,15.9999989E-3,
,,,49.90000153,7.999999449E-3,
,,,50.00000000,7.999999449E-3,
,,,50.10000229,7.999999449E-3,
,,,50.20000076,0.0,
,,,50.29999924,15.9999989E-3,
,,,50.40000153,15.9999989E-3,
,,,50.50000000,0.0,
,,,50.60000229,7.999999449E-3,
,,,50.70000076,15.9999989E-3,
,,,50.79999924,15.9999989E-3,
,,,50.90000153,15.9999989E-3,
,,,51.00000000,7.999999449E-3,
,,,51.10000229,79.999998212E-3,
,,,51.20000076,79.999998212E-3,
,,,51.29999924,79.999998212E-3,
,,,51.40000153,7.999999449E-3,
,,,51.50000000,7.999999449E-3,
,,,51.60000229,7.999999449E-3,
,,,51.70000076,0.0,
,,,51.79999924,15.9999989E-3,
,,,51.90000153,7.999999449E-3,
,,,52.00000000,15.9999989E-3,
,,,52.10000229,7.999999449E-3,
,,,52.20000076,15.9999989E-3,
,,,52.29999924,-7.999999449E-3,
,,,52.40000153,15.9999989E-3,
,,,52.50000000,7.999999449E-3,
,,,52.60000229,-23.99999835E-3,
,,,52.70000076,15.9999989E-3,
,,,52.79999924,127.9999912E-3,
,,,52.90000153,159.99999642E-3,
,,,53.00000000,151.99999511E-3,
,,,53.10000229,135.9999925E-3,
,,,53.20000076,95.999993384E-3,
,,,53.29999924,7.999999449E-3,
,,,53.40000153,7.999999449E-3,
,,,53.50000000,7.999999449E-3,
,,,53.60000229,7.999999449E-3,
,,,53.70000076,79.999998212E-3,
,,,53.79999924,87.999992073E-3,
,,,53.90000153,943.999946117E-3,
,,,54.00000000,15.9999989E-3,
,,,54.10000229,7.999999449E-3,
,,,54.20000076,7.999999449E-3,
,,,54.29999924,7.999999449E-3,
,,,54.40000153,0.0,
,,,54.50000000,0.0,
,,,54.600002289,7.999999449E-3,
,,,54.700000763,15.9999989E-3,
,,,54.799999237,7.999999449E-3,
,,,54.900001526,15.9999989E-3,
,,,55.000000000,7.999999449E-3,
,,,55.100002289,7.999999449E-3,
,,,55.200000763,7.999999449E-3,
,,,55.299999237,15.9999989E-3,
,,,55.400001526,7.999999449E-3,
,,,55.500000000,7.999999449E-3,
,,,55.600002289,15.9999989E-3,
,,,55.700000763,15.9999989E-3,
,,,55.799999237,15.9999989E-3,
,,,55.900001526,7.999999449E-3,
,,,56.000000000,15.9999989E-3,
,,,56.100002289,15.9999989E-3,
,,,56.200000763,7.999999449E-3,
,,,56.299999237,79.999998212E-3,
,,,56.400001526,95.999993384E-3,
,,,56.500000000,7.999999449E-3,
,,,56.600002289,7.999999449E-3,
,,,56.700000763,0.0,
,,,56.799999237,7.999999449E-3,
,,,56.900001526,7.999999449E-3,
,,,57.000000000,7.999999449E-3,
,,,57.100002289,7.999999449E-3,
,,,57.200000763,15.9999989E-3,
,,,57.299999237,7.999999449E-3,
,,,57.400001526,0.0,
,,,57.500000000,7.999999449E-3,
,,,57.600002289,7.999999449E-3,
,,,57.700000763,7.999999449E-3,
,,,57.799999237,15.9999989E-3,
,,,57.900001526,0.0,
,,,58.000000000,7.999999449E-3,
,,,58.100002289,7.999999449E-3,
,,,58.200000763,7.999999449E-3,
,,,58.299999237,7.999999449E-3,
,,,58.400001526,7.999999449E-3,
,,,58.500000000,7.999999449E-3,
,,,58.600002289,15.9999989E-3,
,,,58.700000763,0.0,
,,,58.799999237,87.999992073E-3,
,,,58.900001526,79.999998212E-3,
,,,59.000000000,79.999998212E-3,
,,,59.100002289,7.999999449E-3,
,,,59.200000763,7.999999449E-3,
,,,59.299999237,15.9999989E-3,
,,,59.400001526,7.999999449E-3,
,,,59.500000000,15.9999989E-3,
,,,59.600002289,15.9999989E-3,
,,,59.700000763,7.999999449E-3,
,,,59.799999237,7.999999449E-3,
,,,59.900001526,7.999999449E-3,
,,,60.000000000,7.999999449E-3,
,,,60.100002289,15.9999989E-3,
,,,60.200000763,15.9999989E-3,
,,,60.299999237,7.999999449E-3,
,,,60.400001526,7.999999449E-3,
,,,60.500000000,15.9999989E-3,
,,,60.600002289,7.999999449E-3,
,,,60.700000763,0.0,
,,,60.799999237,7.999999449E-3,
,,,60.900001526,15.9999989E-3,
,,,61.000000000,7.999999449E-3,
,,,61.100002289,7.999999449E-3,
,,,61.200000763,15.9999989E-3,
,,,61.299999237,7.999999449E-3,
,,,61.400001526,79.999998212E-3,
,,,61.500000000,79.999998212E-3,
,,,61.600002289,7.999999449E-3,
,,,61.700000763,7.999999449E-3,
,,,61.799999237,15.9999989E-3,
,,,61.900001526,15.9999989E-3,
,,,62.000000000,15.9999989E-3,
,,,62.100002289,15.9999989E-3,
,,,62.200000763,7.999999449E-3,
,,,62.299999237,7.999999449E-3,
,,,62.400001526,7.999999449E-3,
,,,62.500000000,15.9999989E-3,
,,,62.600002289,7.999999449E-3,
,,,62.700000763,7.999999449E-3,
,,,62.799999237,7.999999449E-3,
,,,62.900001526,7.999999449E-3,
,,,63.000000000,7.999999449E-3,
,,,63.100002289,15.9999989E-3,
,,,63.200000763,7.999999449E-3,
,,,63.299999237,7.999999449E-3,
,,,63.400001526,7.999999449E-3,
,,,63.500000000,0.0,
,,,63.600002289,15.9999989E-3,
